…
We can use a function like `grep` to grab only columns that match a certain pattern, such as columns that have the word 'amount' in them.

``` r
amount_vars <- grep('amount', names(nyc_taxi), value = TRUE)
nyc_taxi[nyc_taxi$fare_amount > 350 & nyc_taxi$tip_amount < 10, amount_vars]
```

    ## # A tibble: 58 × 4
    ##    fare_amount tip_amount tolls_amount total_amount
    ##          <dbl>      <dbl>        <dbl>        <dbl>
    ## 1          550          0            0          550
    ## 2          450          0            0          450
    ## 3         8452          0            0         8453
    ## 4          726          0            0          726
    ## 5          499          0            0          500
    ## 6          365          0           12          377
    ## 7          400          0            0          400
    ## 8          423          0            0          423
    ## 9       628545          0            0       629034
    ## 10         480          0            0          480
    ## # ... with 48 more rows
…
    ## # A tibble: 0 × 4
    ## # ... with 4 variables: fare_amount <dbl>, tip_amount <dbl>,
    ## #   tolls_amount <dbl>, total_amount <dbl>

There are three ways to avoid such errors: (1) avoid having objects with the same name as column names in the data, (2) use the `with` function. With `with` we are explicitly telling R that the columns we reference are in `nyc_taxi`, this way we don't need to prefix the columns by `nyc_taxi$` anymore. Here's the above query rewritten using `with`.

``` r
with(nyc_taxi, nyc_taxi[fare_amount > 350 & tip_amount < 10, amount_vars])
```

    ## # A tibble: 58 × 4
    ##    fare_amount tip_amount tolls_amount total_amount
    ##          <dbl>      <dbl>        <dbl>        <dbl>
    ## 1          550          0            0          550
    ## 2          450          0            0          450
    ## 3         8452          0            0         8453
    ## 4          726          0            0          726
    ## 5          499          0            0          500
    ## 6          365          0           12          377
    ## 7          400          0            0          400
    ## 8          423          0            0          423
    ## 9       628545          0            0       629034
    ## 10         480          0            0          480
    ## # ... with 48 more rows

We can use `with` any time we need to reference multiple columns in the data, not just for slicing the data. In the specific case where we slice the data, there is another option: using the `subset` function. Just like `with`, `subset` takes in the data as its first input so we don't have to prefix column names with `nyc_taxi$`. We can also use the `select` argument to slice by columns. Let's contrast slicing the data using `subset` with the bracket notation:

-   bracket notation: `data[rows_to_slice, columns_to_slice]`
-   using `subset`: `subset(data, rows_to_slice, select = columns_to_slice)`

Here's what the above query would look like using `subset`:

``` r
subset(nyc_taxi, fare_amount > 350 & tip_amount < 10, select = amount_vars)
```

    ## # A tibble: 58 × 4
    ##    fare_amount tip_amount tolls_amount total_amount
    ##          <dbl>      <dbl>        <dbl>        <dbl>
    ## 1          550          0            0          550
    ## 2          450          0            0          450
    ## 3         8452          0            0         8453
    ## 4          726          0            0          726
    ## 5          499          0            0          500
    ## 6          365          0           12          377
    ## 7          400          0            0          400
    ## 8          423          0            0          423
    ## 9       628545          0            0       629034
    ## 10         480          0            0          480
    ## # ... with 48 more rows
…
    ## [1] 3 3 6 6 6 6 6

1.  Create a new data object consisting of 5 copies of the first row of the data.

2.  Create a new data object consisting of 5 copies of each of the first 10 rows of the data.

3.  We learned to how to slice data using conditional statements. Note that in R, not all conditional statements have to involve columns in the data. Here's an example:

``` r
subset(nyc_small, fare_amount > 100 & 1:2 > 1)
```

    ## # A tibble: 29 × 4
    ##    fare_amount extra mta_tax tip_amount
    ##          <dbl> <dbl>   <dbl>      <dbl>
    ## 1          450   0.0    0.00          0
    ## 2          726   0.0    0.50          0
    ## 3          365   0.0    0.00          0
    ## 4          423   0.0    0.00          0
    ## 5          480   0.0    0.00          0
    ## 6          375   0.0    0.00          0
    ## 7          688   0.0    0.50          0
    ## 8          494   0.0    0.25          0
    ## 9         4886   0.5    0.50          0
    ## 10         400   0.0    0.00          0
    ## # ... with 19 more rows
…
Notice the way that the row indexes appear in the results in each case. This can sometimes be an indication of how the data was sampled.

1.  As it turns out, the second condition makes it so that we skip every other row of the data, but we need to be familiar with vector operation in R to guess that and even then it is not immediately clear that is what's happening. So here's a better way of doing the same thing.

``` r
nyc_small <- nyc_small[seq(2, nrow(nyc_small), by = 2), ] # take even-numbered rows
subset(nyc_small, fare_amount > 100)
```

    ## # A tibble: 29 × 4
    ##    fare_amount extra mta_tax tip_amount
    ##          <dbl> <dbl>   <dbl>      <dbl>
    ## 1          450   0.0    0.00          0
    ## 2          726   0.0    0.50          0
    ## 3          365   0.0    0.00          0
    ## 4          423   0.0    0.00          0
    ## 5          480   0.0    0.00          0
    ## 6          375   0.0    0.00          0
    ## 7          688   0.0    0.50          0
    ## 8          494   0.0    0.25          0
    ## 9         4886   0.5    0.50          0
    ## 10         400   0.0    0.00          0
    ## # ... with 19 more rows
…
