R Deep-dive
…
Are any dates missing from the data?

There are many ways to answer this query and we cover three because each way highlights an important point. The first way consists sorting the data by date and using the lag function to find the difference between each date and the date proceeding it. If this difference is greater than 1, then we skipped one or more days.

nyc_taxi %>%
  select(pickup_datetime) %>%
  distinct(date = as.Date(pickup_datetime)) %>%
  arrange(date) %>% # this is an important step!
  mutate(diff = date - lag(date)) %>%
  arrange(desc(diff))

## # A tibble: 182 × 2
##          date   diff
##        <date> <time>
## 1  2016-01-02 1 days
## 2  2016-01-03 1 days
## 3  2016-01-04 1 days
## 4  2016-01-05 1 days
## 5  2016-01-06 1 days
## 6  2016-01-07 1 days
## 7  2016-01-08 1 days
## 8  2016-01-09 1 days
## 9  2016-01-10 1 days
## 10 2016-01-11 1 days
## # ... with 172 more rows
…
